{
    "new-user-credentials": {
        "first-name": "Alice",
        "last-name": "Mark",
        "email": "alicemark17@mail.com",
        "password": "12345"
    },
    "incomplete-credentials": {
        "empty-email": {
            "first-name": "Alice",
            "last-name": "Mark",
            "email": "{esc}",
            "password": "12345"
        },
        "empty-password": {
            "first-name": "Alice",
            "last-name": "Mark",
            "email": "alicemark20@mail.com",
            "password": "{esc}"
        },
        "all-fields-empty": {
            "first-name": "{esc}",
            "last-name": "{esc}",
            "email": "{esc}",
            "password": "{esc}"
        }
    },
    "registered-user-credentials": {
        "email": "alicemark3@mail.com",
        "password": "12345"
    },
    "search": {
        "search-term-that-returns-products": "jeans",
        "search-term-that-not-returns-products": "cake",
        "search-typo-term": "jeanns",
        "search-particular-brand-item": "hazel brown"
    },
    "filter": {
        "product":"jeans", 
        "from-price": "200",
        "to-price": "300"
    }
}